id	class	type/scale	name	text
	S		language	de
	SL		surveyls_language	de
	SL		surveyls_title	Wahlentscheidung Vertiefungsseminar Methoden
1	G	1	Kompetenzen	.
1	Q	L	soz	Studieren Sie Soziologie?
1	A		1	Ja
1	A		2	Nein
2	Q	S	sozoff	Welches andere Fach studieren Sie?
3	Q	N	fach	In welchem Fachsemester studieren Sie?
4	Q	M	veran	Welche der folgenden Veranstaltungen haben Sie bereits bestanden?
5	SQ		veranx	Methoden 1a
6	SQ		verana	Methoden 1b
7	SQ		veranb	Methoden 2
8	SQ		veranc	Einführung in die computergestützte Datenanalyse mit Stata
4	A		1	.
9	Q	F	aspekt	Sie haben sich für die Teilnahme an dem Seminar „Fragebogenprogrammierung mit LaTeX“ entschieden. Wie wichtig waren dabei die folgenden Aspekte?
10	SQ		aspektscale	Seminartitel
11	SQ		aspekt1	Themenbeschreibung
12	SQ		aspekt2	Termin
13	SQ		aspekt3	DozentIn
14	SQ		aspekt4	Berufsperspektive
15	SQ		aspekt5	Vorbereitung auf Abschlussarbeit
9	A		1	wichtig
9	A		2	eher wichtig
9	A		3	weniger wichtig
9	A		4	gar nicht wichtig
16	Q	L	aspektsonst	Sind Ihnen noch weitere Aspekte wichtig gewesen?
16	A		1	Ja
16	A		2	Nein
17	Q	S	aspektoff	Welche Aspekte waren das?
18	Q	L	modul	In dem Modul, in dem dieses Seminar stattfindet, habe ich …
18	A		1	noch kein Seminar besucht
18	A		2	1 Seminar bestanden
18	A		3	2 Seminare bestanden
18	A		4	1 Seminar + Modulprüfung bestanden
18	A		5	2 Seminare + Modulprüfung bestanden
19	Q	L	wunsch	In dem Modul, in dem dieses Seminar stattfindet, haben Sie Seminarwünsche, die über das bisherige Angebot hinaus gehen?
19	A		1	Ja
19	A		2	Nein
20	Q	S	wunschoff	Welche Wünsche sind das?
